<svg width="164" height="140" viewBox="0 0 164 140" fill="none" xmlns="http://www.w3.org/2000/svg">
<path d="M148.715 122.363C148.666 122.363 148.616 122.413 148.567 122.413V136.541H12.4601V125.426H8.99805V139.999H151.98V120.684C150.941 121.326 149.853 121.869 148.715 122.363Z" fill="#494E54"/>
<path d="M152.034 46.3377V20.5508H148.572V44.6581C149.759 45.2015 150.946 45.7449 152.034 46.3377Z" fill="#494E54"/>
<path d="M116.519 0V3.45802H12.4601V41.3974H8.99805V0H116.519Z" fill="#494E54"/>
<path d="M123.99 0H116.521V3.45802H123.99V0Z" fill="#494E54"/>
<path d="M0 50.4375H27.9435C29.4767 50.4375 30.812 50.4869 32.0484 50.6351C33.2354 50.7833 34.5708 51.0797 36.0545 51.4749C37.5382 51.9195 38.923 52.6111 40.2584 53.5003C41.5937 54.4389 42.7807 55.6245 43.9182 57.0077C46.3417 60.12 47.5781 64.0226 47.5781 68.765C47.5781 74.6436 45.7976 79.2872 42.2367 82.6959C40.4562 84.4249 38.1812 85.7587 35.4115 86.6973C32.6419 87.6853 29.8723 88.1299 27.0532 88.1299C24.1847 88.1299 21.3656 87.6359 18.6455 86.6973V112.04C18.6455 112.731 18.8433 113.225 19.2884 113.472C19.7335 113.719 20.3765 113.867 21.2173 113.917L27.9929 114.361V116.239H0.0494567V114.361L5.83598 113.917C6.42947 113.867 6.87459 113.818 7.17133 113.769C7.46808 113.719 7.76482 113.522 8.06157 113.225C8.35831 112.929 8.45722 112.534 8.45722 112.04V54.6859C8.45722 53.9449 8.2594 53.4509 7.81428 53.2533C7.36916 53.0063 6.72622 52.8581 5.83598 52.8087L0.0494567 52.3147V50.4375H0ZM18.5466 53.7473V84.1779C21.3162 85.2153 23.6407 85.7587 25.4706 85.7587C29.625 85.7587 32.6419 84.0791 34.5708 80.7692C36.2029 78.0028 36.9942 74.2978 36.9942 69.6542C36.9942 64.2696 35.9061 60.1694 33.73 57.2547C31.5539 54.3401 28.3886 52.9075 24.1847 52.9075C22.2559 52.9075 20.3765 53.2039 18.5466 53.7473Z" fill="#494E54"/>
<path d="M100.941 108.828C99.3092 111.1 96.8858 113.076 93.7205 114.756C89.121 117.226 84.5214 118.411 79.9713 118.411C75.5696 118.411 71.3657 117.275 67.508 114.953C63.6009 112.632 60.3862 109.124 57.8144 104.382C54.748 98.7501 53.2148 92.1799 53.2148 84.6711C53.2148 81.1637 53.561 77.6562 54.2535 74.1488C54.9459 70.6414 55.8855 67.5292 57.1714 64.8616C58.1606 62.7868 59.3476 60.8602 60.7818 59.0323C62.2161 57.2045 63.8482 55.5249 65.6781 53.9935C67.5575 52.4621 69.6842 51.2271 72.0581 50.3379C74.4816 49.4487 76.9544 49.0041 79.5757 49.0041C82.1475 49.0041 85.1149 49.4981 88.3791 50.4861C90.6541 51.1777 92.0884 51.5235 92.6819 51.5235C93.3743 51.5235 93.9183 51.2765 94.3635 50.8319C94.7591 50.3379 94.9569 49.7945 94.9569 49.1029C94.9569 48.8559 94.9075 48.6089 94.8086 48.3125H98.1222L99.0619 71.333H96.9847C96.7869 67.875 95.9955 64.7134 94.5118 61.7988C94.1656 61.0084 93.7205 60.218 93.2259 59.4276C92.7314 58.6371 92.039 57.7479 91.1487 56.7599C90.2585 55.7719 89.3188 54.8827 88.3296 54.1417C87.3405 53.4007 86.1535 52.7585 84.7193 52.2645C83.285 51.7211 81.8507 51.4741 80.3175 51.4741C77.8941 51.4741 75.7675 52.1657 73.8386 53.5983C71.9098 55.0309 70.426 56.8093 69.2885 58.9335C68.151 61.1072 67.2113 63.6266 66.4694 66.4918C65.7276 69.357 65.233 72.1234 64.9363 74.791C64.6395 77.4586 64.5406 80.0768 64.5406 82.7445C64.5406 86.9929 64.7879 90.8955 65.2825 94.3535C65.777 97.8115 66.3705 100.677 67.1124 102.9C67.8543 105.123 68.7445 107.099 69.8326 108.778C70.9206 110.458 71.9098 111.742 72.8989 112.632C73.8881 113.521 74.9267 114.212 76.0642 114.756C77.2017 115.299 78.092 115.645 78.8338 115.744C79.5262 115.843 80.2681 115.941 80.9605 115.941C83.3344 115.941 85.6095 115.151 87.8351 113.62C88.8242 112.879 89.5166 112.187 90.0112 111.545C90.5058 110.903 90.8025 110.013 90.9014 108.927V93.3655C90.9014 92.6245 90.7036 92.1305 90.2585 91.9329C89.8134 91.6859 89.1704 91.5377 88.2802 91.4883L82.4937 91.0437V89.1665H108.063V91.0437L103.661 91.4883C103.019 91.5871 102.573 91.6365 102.277 91.7353C101.98 91.7847 101.733 91.9823 101.436 92.2293C101.139 92.5257 101.04 92.8715 101.04 93.3655V108.828H100.941Z" fill="#494E54"/>
<path d="M107.965 50.4375H133.337C137.788 50.4375 141.794 51.0797 145.355 52.3641C148.916 53.6485 151.834 55.3281 154.158 57.4523C156.433 59.5766 158.362 62.0466 159.846 64.9118C161.379 67.777 162.418 70.6916 163.06 73.6556C163.703 76.6196 164 79.7318 164 82.9429C164 88.0805 163.308 92.7241 161.873 96.9725C160.439 101.221 158.461 104.728 155.939 107.544C153.416 110.36 150.449 112.534 147.036 114.065C143.624 115.596 139.914 116.387 135.958 116.387H108.014V114.51L113.801 114.065C114.394 114.016 114.839 113.966 115.136 113.917C115.433 113.818 115.73 113.67 116.026 113.373C116.323 113.077 116.422 112.682 116.422 112.188V54.6859C116.422 53.9449 116.224 53.4509 115.779 53.2533C115.334 53.0063 114.691 52.8581 113.801 52.8087L108.014 52.3147V50.4375H107.965ZM126.561 53.3521V112.978C129.083 113.62 131.259 113.966 133.188 113.966C135.809 113.966 138.183 113.571 140.31 112.781C142.437 111.99 144.168 110.953 145.553 109.718C146.937 108.483 148.124 106.902 149.163 105.025C150.202 103.148 150.993 101.27 151.537 99.4425C152.081 97.6147 152.526 95.5399 152.823 93.1687C153.12 90.7975 153.317 88.7721 153.416 86.9937C153.515 85.2647 153.515 83.2887 153.515 81.1645C153.515 62.343 146.245 52.9075 131.704 52.9075C129.875 52.9075 128.143 53.0557 126.561 53.3521Z" fill="#494E54"/>
</svg>
